-------------------------------------------------------------------------------
Test set: br.com.each.usp.testes.validadores.ValidadorCPFTest
-------------------------------------------------------------------------------
Tests run: 6, Failures: 0, Errors: 0, Skipped: 0, Time elapsed: 0.07 sec
